
00
C3
D4
18
0F
14
12
07
F5
C5
D5
E5
C3
8C
00
00
F5
C5
D5
E5
3E
80
32
72
20
21
C0
20
35
CD
92
10
DB
01
0F
DA
67
00
3A
EA
20
A7
CA
42
00
C3
FE
0B
7C
BA
C0
7D
BB
C9
00
00
32
EB
20
CD
47
19
AF
32
EA
20
3A
E9
20
A7
CA
82
00
3A
EF
20
A7
C2
6F
00
3A
EB
20
A7
C2
5D
00
CD
BF
0A
C3
82
00
3A
93
20
A7
C2
82
00
C3
65
07
3E
01
32
EA
20
C3
3F
00
CD
40
17
3A
32
20
32
80
20
CD
22
11
CD
48
02
CD
13
09
00
CD
C2
12
E1
D1
C1
F1
FB
C9
00
AF
32
72
20
3A
E9
20
A7
CA
82
00
3A
EF
20
A7
C2
A5
00
3A
C1
20
0F
D2
82
00
21
20
20
CD
4B
02
CD
41
01
C3
82
00
CD
86
08
E5
7E
23
66
6F
22
09
20
22
0B
20
E1
2B
7E
FE
03
C2
C8
00
3D
32
08
20
FE
FE
3E
00
C2
D3
00
3C
32
0D
20
C9
3E
02
32
FB
21
32
FB
22
C3
E4
08
2A
13
20
11
65
1B
23
19
EB
C3
32
1A
03
08
12
0F
0B
00
18
26
26
02
0E
0F
18
11
08
06
07
13
21
02
20
7E
A7
C2
38
15
E5
3A
06
20
6F
3A
67
20
67
7E
A7
E1
CA
36
01
23
23
7E
23
46
E6
FE
07
07
07
5F
16
00
21
00
1C
19
EB
78
A7
C4
3B
01
2A
0B
20
06
10
CD
69
14
AF
32
00
20
C9
21
30
00
19
EB
C9
3A
68
20
A7
C8
3A
00
20
A7
C0
3A
67
20
67
3A
06
20
16
02
3C
FE
37
CC
A1
01
6F
46
05
C2
54
01
32
06
20
CD
7A
01
61
22
0B
20
7D
FE
28
DA
71
19
7A
32
04
20
3E
01
32
00
20
C9
16
00
7D
21
09
20
46
23
4E
FE
0B
FA
94
01
DE
0B
5F
78
C6
10
47
7B
14
C3
83
01
68
A7
C8
5F
79
C6
10
4F
7B
3D
C3
95
01
15
CA
CD
01
21
06
20
36
00
23
4E
36
00
CD
D9
01
21
05
20
7E
3C
E6
01
77
AF
21
67
20
66
C9
00
21
00
21
06
37
36
01
23
05
C2
C5
01
C9
E1
C9
3E
01
06
E0
21
02
24
C3
CC
14
23
46
23
79
86
77
23
78
86
77
C9
06
C0
11
00
1B
21
00
20
C3
32
1A
21
42
21
C3
F8
01
21
42
22
0E
04
11
20
1D
D5
06
2C
CD
32
1A
D1
0D
C2
FD
01
C9
3E
01
C3
1B
02
3E
01
C3
14
02
AF
11
42
22
C3
1E
02
AF
11
42
21
32
81
20
01
02
16
21
06
28
3E
04
F5
C5
3A
81
20
A7
C2
42
02
CD
69
1A
C1
F1
3D
C8
D5
11
E0
02
19
D1
C3
29
02
CD
7C
14
C3
35
02
21
10
20
7E
FE
FF
C8
FE
FE
CA
81
02
23
46
4F
B0
79
C2
77
02
23
7E
A7
C2
88
02
23
5E
23
56
E5
EB
E5
21
6F
02
E3
D5
E9
E1
11
0C
00
19
C3
4B
02
05
04
C2
7D
02
3D
05
70
2B
77
11
10
00
19
C3
4B
02
35
2B
2B
C3
81
02
E1
23
7E
FE
FF
CA
3B
03
23
35
C0
47
AF
32
68
20
32
69
20
3E
30
32
6A
20
78
36
05
23
35
C2
9B
03
2A
1A
20
06
10
CD
24
14
21
10
20
11
10
1B
06
10
CD
32
1A
06
00
CD
DC
19
3A
6D
20
A7
C0
3A
EF
20
A7
C8
31
00
24
FB
CD
D7
19
CD
2E
09
A7
CA
6D
16
CD
E7
18
7E
A7
CA
2C
03
3A
CE
20
A7
CA
2C
03
3A
67
20
F5
0F
DA
32
03
CD
0E
02
CD
78
08
73
23
72
2B
2B
70
00
CD
E4
01
F1
0F
3E
21
06
00
D2
12
03
06
20
3E
22
32
67
20
CD
B6
0A
AF
32
11
20
78
D3
05
3C
32
98
20
CD
D6
09
CD
7F
1A
C3
F9
07
CD
7F
1A
C3
17
08
CD
09
02
C3
F8
02
00
00
00
21
68
20
36
01
23
7E
A7
C3
B0
03
00
2B
36
01
3A
1B
20
47
3A
EF
20
A7
C2
63
03
3A
1D
20
0F
DA
81
03
0F
DA
8E
03
C3
6F
03
CD
C0
17
07
07
DA
81
03
07
DA
8E
03
21
18
20
CD
3B
1A
CD
47
1A
CD
39
14
3E
00
32
12
20
C9
78
FE
D9
CA
6F
03
3C
32
1B
20
C3
6F
03
78
FE
30
CA
6F
03
3D
32
1B
20
C3
6F
03
3C
E6
01
32
15
20
07
07
07
07
21
70
1C
85
6F
22
18
20
C3
6F
03
C2
4A
03
23
35
C2
4A
03
C3
46
03
11
2A
20
CD
06
1A
E1
D0
23
7E
A7
C8
FE
01
CA
FA
03
FE
02
CA
0A
04
23
FE
03
C2
2A
04
35
CA
36
04
7E
FE
0F
C0
E5
CD
30
04
CD
AA
14
E1
23
34
23
23
35
35
23
35
35
35
23
36
08
CD
30
04
C3
91
14
3C
77
3A
1B
20
C6
08
32
2A
20
CD
30
04
C3
91
14
CD
30
04
D5
E5
C5
CD
AA
14
C1
E1
D1
3A
2C
20
85
6F
32
29
20
CD
EE
13
3A
61
20
A7
C8
32
02
20
C9
FE
05
C8
C3
36
04
21
27
20
C3
3B
1A
CD
30
04
CD
AA
14
21
25
20
11
25
1B
06
07
CD
32
1A
00
00
00
00
00
00
00
00
00
00
00
00
00
00
00
2A
8F
20
2C
22
8F
20
3A
84
20
A7
C0
7E
E6
01
01
29
02
C2
6E
04
01
E0
FE
21
8A
20
71
23
23
70
C9
E1
3A
32
1B
32
32
20
2A
38
20
7D
B4
C2
8A
04
2B
22
38
20
C9
11
35
20
3E
F9
CD
50
05
3A
46
20
32
70
20
3A
56
20
32
71
20
CD
63
05
3A
78
20
A7
21
35
20
C2
5B
05
11
30
1B
21
30
20
06
10
C3
32
1A
E1
3A
6E
20
A7
C0
3A
80
20
FE
01
C0
11
45
20
3E
ED
CD
50
05
3A
36
20
32
70
20
3A
56
20
32
71
20
CD
63
05
3A
76
20
FE
10
DA
E7
04
3A
48
1B
32
76
20
3A
78
20
A7
21
45
20
C2
5B
05
11
40
1B
21
40
20
06
10
CD
32
1A
3A
82
20
3D
C2
08
05
3E
01
32
6E
20
2A
76
20
C3
7E
06
E1
11
55
20
3E
DB
CD
50
05
3A
46
20
32
70
20
3A
36
20
32
71
20
CD
63
05
3A
76
20
FE
15
DA
34
05
3A
58
1B
32
76
20
3A
78
20
A7
21
55
20
C2
5B
05
11
50
1B
21
50
20
06
10
CD
32
1A
2A
76
20
22
58
20
C9
32
7F
20
21
73
20
06
0B
C3
32
1A
11
73
20
06
0B
C3
32
1A
21
73
20
7E
E6
80
C2
C1
05
3A
C1
20
FE
04
3A
69
20
CA
B7
05
A7
C8
23
36
00
3A
70
20
A7
CA
89
05
47
3A
CF
20
B8
D0
3A
71
20
A7
CA
96
05
47
3A
CF
20
B8
D0
23
7E
A7
CA
1B
06
2A
76
20
4E
23
00
22
76
20
CD
2F
06
D0
CD
7A
01
79
C6
07
67
7D
D6
0A
6F
22
7B
20
21
73
20
7E
F6
80
77
23
34
C9
11
7C
20
CD
06
1A
D0
23
7E
E6
01
C2
44
06
23
34
CD
75
06
3A
79
20
C6
03
21
7F
20
BE
DA
E2
05
D6
0C
32
79
20
3A
7B
20
47
3A
7E
20
80
32
7B
20
CD
6C
06
3A
7B
20
FE
15
DA
12
06
3A
61
20
A7
C8
3A
7B
20
FE
1E
DA
12
06
FE
27
00
D2
12
06
97
32
15
20
3A
73
20
F6
01
32
73
20
C9
3A
1B
20
C6
08
67
CD
6F
15
79
FE
0C
DA
A5
05
0E
0B
C3
A5
05
0D
3A
67
20
67
69
16
05
7E
A7
37
C0
7D
C6
0B
6F
15
C2
37
06
C9
21
78
20
35
7E
FE
03
C2
67
06
CD
75
06
21
DC
1C
22
79
20
21
7C
20
35
35
2B
35
35
3E
06
32
7D
20
C3
6C
06
A7
C0
C3
75
06
21
79
20
CD
3B
1A
C3
EE
13
21
79
20
CD
3B
1A
C3
AA
14
22
48
20
C9
E1
3A
80
20
FE
02
C0
21
83
20
7E
A7
CA
0F
05
3A
56
20
A7
C2
0F
05
23
7E
A7
C2
AB
06
3A
82
20
FE
02
DA
0F
05
36
01
CD
3C
07
11
8A
20
CD
06
1A
D0
21
85
20
7E
A7
C2
D6
06
21
8A
20
7E
23
23
86
32
8A
20
CD
10
12
21
8A
20
7E
FE
28
DA
F9
06
FE
E1
D2
F9
06
C9
06
FE
CD
DC
19
23
35
7E
FE
1F
CA
4B
07
FE
18
CA
0C
07
A7
C0
06
EF
21
98
20
7E
A0
77
E6
20
D3
05
00
00
00
CD
D2
12
CD
CB
14
21
83
20
06
0A
CD
5F
07
06
FE
C3
DC
19
3E
01
32
F1
20
2A
8D
20
46
0E
04
21
50
1D
11
4C
1D
1A
B8
CA
28
07
23
13
0D
C2
1D
07
7E
32
87
20
26
00
68
29
29
29
29
22
F2
20
CD
D2
12
C3
F1
08
CD
42
07
C3
39
14
21
87
20
CD
3B
1A
C3
47
1A
06
10
21
98
20
7E
B0
77
CD
70
17
21
7C
1D
22
87
20
C3
3C
07
11
83
1B
C3
32
1A
3E
01
32
93
20
31
00
24
FB
CD
79
19
CD
F6
17
21
13
30
11
04
00
0E
04
CD
F3
08
3A
EB
20
3D
21
10
28
0E
14
C2
57
08
11
CF
1A
CD
F3
08
DB
01
E6
04
CA
7F
07
06
99
AF
32
CE
20
3A
EB
20
80
27
32
EB
20
CD
47
19
21
00
00
22
F8
20
22
FC
20
CD
25
19
CD
2B
19
CD
D7
19
21
01
01
7C
32
EF
20
22
E7
20
22
E5
20
CD
D9
12
CD
EF
01
CD
F5
01
CD
D1
08
32
FF
21
32
FF
22
CD
D7
00
AF
32
FE
21
32
FE
22
CD
C0
01
CD
04
19
21
78
38
22
FC
21
22
FC
22
CD
E4
01
CD
7F
1A
CD
8D
08
CD
D6
09
00
