20
20
20
20
20
20
20
20
20
20
20
20
20
53
83
92
81
8C
89
8E
87
93
20
20
20
20
20
20
20
20
20
20
20
20
20
20
20
20
20
20
20
20
20
20
20
53
95
96
85
92
8D
81
8E
20
20
20
20
20
20
20
20
20
20
20
20
20
20
20
20
20
20
20
20
20
46
92
85
84
85
92
89
83
20
4D
81
88
85
20
20
20
20
20
20
20
20
20
20
20
20
20
20
20
20
20
20
20
4A
8F
20
54
8F
8D
89
99
8F
92
89
20
20
20
20
20
20
20
20
20
20
20
20
20
20
20
20
20
20
20
20
20
20
42
92
89
81
8E
20
53
81
8C
8C
85
85
20
20
20
20
20
20
20
20
20
20
20
20
20
20
20
20
20
20
20
20
20
20
46
55
4C
4C
53
45
54
20
20
20
20
20
20
20
20
20
20
20
20
20
20
20
20
20
20
20
20
20
50
88
89
8C
8C
89
90
20
4D
83
4D
81
88
8F
8E
20
20
20
20
20
20
20
20
20
20
20
20
20
20
20
20
20
20
44
95
93
94
89
8E
20
48
95
82
82
81
92
84
20
20
20
20
20
20
20
20
20
20
20
20
20
20
20
20
20
20
20
44
81
8E
89
85
8C
20
42
81
95
9A
81
20
20
20
20
20
20
20
20
20
0
0
0
0
0
0
0
0
0
0
0
0
0
0
0
0
0
0
0
0
0
0
0
0
0
0
0
0
0
0
0
0
0
0
0
0
0
0
0
0
0
0
0
0
0
0
0
0
0
0
0
0
0
0
0
0
0
0
0
0
0
0
0
0
0
0
0
0
0
0
0
0
0
0
0
0
0
0
0
0
0
0
0
0
0
0
0
0
0
0
0
0
0
0
0
0
0
0
0
0
0
0
0
0
0
0
0
0
0
0
0
0
0
0
0
0
0
0
0
0
0
0
0
0
0
0
0
0
0
0
0
0
0
0
0
0
0
0
0
0
0
0
0
0
0
0
0
0
0
0
0
0
0
0
0
0
0
0
0
0
0
0
0
0
0
0
0
0
0
0
0
0
0
0
0
0
0
0
0
0
0
0
0
0
0
0
0
0
0
0
0
0
0
0
0
0
0
0
0
0
0
0
0
0
0
0
0
0
0
0
0
0
0
0
0
0
0
0
0
0
0
0
0
0
