:10000000444B2008D75F00EADF4CDF008E06006F0C
:10001000808C098926F98EC109CE0134C60ABDA596
:100020009ACCB277ED43ED486FC46F45CCCF0AFD53
:10003000012DCCCF32FD0132CE015E867EB701A00C
:10004000A7C0EC81EDC18CC13926F08EC2B2BF01D0
:10005000A18EC8B0BF019B8E095F9FB0CEB44AC6C7
:100060000AEF815A26FB8ED8A1BF010A867EB7010E
:10007000098ED8AFBF010D8613B7097A7F08007FBC
:10008000084A7F08947F08DE8E0989BF09483089B5
:100090000100BF094A3001BF09286F0030890119EA
:1000A000BF092A6F0030890119BF092C6F00860231
:1000B000B7095B308901191F105D27014C850127A5
:1000C000014C1F89CB18D719BD96EC96BA8B0697B1
:1000D000B7AD9FC0088D191CAF8EC138BDB99C8EBD
:1000E000C0E79F727EA0E2128D06BDD2D27E80C094
:1000F0007F09827F09857F09867FFF4086D0B7FF11
:10010000481E881E88B6FF483914C192C23806C2FC
:1001100019C24EC44BC888C893CC1CC5BCC848C8BB
:100120004BCAE9CAF98E90CD35C8A9C6E4CAE4C95C
:100130000CCED2C6E4C265CA3E4449534B20455852
:1001400054454E44454420434F4C4F522042415366
:10015000494320312E310D434F505952494748549D
:100160002028432920313938322042592054414E29
:1001700044590D554E444552204C4943454E534534
:100180002046524F4D204D4943524F534F46540D38
:100190000D004449D244524956C54649454CC446CF
:1001A000494C45D34B494CCC4C4F41C44C5345D49E
:1001B0004D455247C552454E414DC5525345D45306
:1001C0004156C557524954C55645524946D9554ED0
:1001D0004C4F41C444534B494EC94241434B55D007
:1001E000434F50D944534B49A444534B4FA4444F1D
:1001F000D3CCA9CEC5D0BCD15CC6EFCA48D102CA07
:1002000039D01BD101C9E0D066D74ED233D599D2AF
:1002100062D3B9D4EDD562D6EC4356CE465245C52D
:100220004C4FC34C4FC64D4B4EA441D3CDF4CE9C46
:10023000CE10CE37CE02B27781E122088EC1F18096
:10024000CE7EADD481E11023F02D6E9F0141C14ED1
:1002500023046E9F0146C0443404BDB26235048E4F
:10026000C22C7EB2CE3520BDAD33BDD2D23424BD3A
:10027000CAE93504C1361025C6763262BDA7E9BD8C
:10028000A9740F6FBDB95CBDB9AF8EC25A7EAC60A8
:10029000425244464F425750464E46534145464FC0
:1002A0005345564645524241532020204441544232
:1002B000494E3411AE638C975F26048123270235A3
:1002C000913265BDC82E9FF16F88156F88166F88B3
:1002D000176F88186F06A60197EB9DA5270CBDB276
:1002E0006DBDB73D1F109EF1ED07EC07271DBDC684
:1002F00085EC09AE0B3416305EBD9FB53460A6E0C8
:100300002609351035048C02642505C6367EAC46B8
:10031000DEF1AC4D102700B73414A64F27066F4FFF
:10032000C6038D33EC61BDC7843404BDC77950EB7F
:10033000635CE744E642BDC7553306A6E44C30C4CF
:100340003A4A2737E7E4E684C1C025F2E6E40DD84F
:100350002614C62E7EAC4630C819D7EA9FEE30C4AC
:10036000BDC7637ED6F23412BDC7BF1F893542E7D1
:10037000C44A26F23414BDC71E35143261DEF1E7DB
:100380004386FFA74DA68481C02527843FA144242E
:100390002196D827BDA6448AC0A784BDC5A9AE4969
:1003A0008C01002608ACC81327088681214F5FED19
:1003B000C813C602AE498C0100260D3267AE4B96BB
:1003C000D82702C6037EC35ABDC3573514AF4D3478
:1003D00004BDC7553006E6433AA68481C0252B8468
:1003E0003FA1442625ECC813847F34064FE662E320
:1003F0006310A3E123140DD81027FF5610830100CA
:100400002303CC01008A80EDC813350430C8193AA3
:10041000EE62340486FFE3612407ED613504502069
:1004200008E6626F616F62326196D827021E13BDC3
:10043000A59AEF62DEF196D82704A74FAF62AE4DC2
:1004400030015FEEE41026FEBD35963262BDB15636
:10045000BDB6A43404BDA5A25D102FE1A6350234BB
:10046000060F6FBDB26D8EC2ACBDC938CC01FFFDA9
:1004700009578E01009DA52708BDB26DBDB3E69E4C
:1004800052BF097C1027EFC2BDA5C735063402BD97
:10049000C7491026E1869FF1BDC79DBDC68C3504B6
:1004A00086103402C149261FBDC6E5BDC807BE0976
:1004B00074EC0BFD09578D75BDC627BDC7556C0083
:1004C0009EF13502A7003968E4C14F261B7D0973F0
:1004D000270FBDC6FCB60973B70977BE0974BF09FB
:1004E00078BDC5678D5220D3C1522706C14410265E
:1004F000E12468E4FC09483406F3097C250610B3BE
:10050000094A2305C63A7EAC4634067D09732604A3
:100510008D55200586FFBDC8078D12630D6C08350B
:1005200046FD0948EF0BFE097CEF09208E8D09FE80
:100530000974EE4EEF8813399EF1C6196F805A2662
:10054000FB9EF196EBA701B60976A702A703F60971
:1005500073C0035858583404FC0974830600860895
:100560003DABE0A7881239C638B609771027E6D622
:10057000B7097397EDC602D7EABDD6F2BE0978BFB8
:1005800009743384C6206F805A26FB8E094CC60B33
:10059000BDA59AFC0957ED40C621BDC7BFB7097676
:1005A000A742C603D7EABDD6F23456BDC7556C0183
:1005B000A601B1097A2503BDC71E35D6966F102F47
:1005C000C72F326234140F708E0926D66F58AE854D
:1005D000E684C1402616EC881510A3092420C30028
:1005E00001ED8815AE0B308BA61F3594E6881027D9
:1005F00008A688116F88103594E6881727040370C1
:100600003594E6056C056A881827063AA6881935D8
:100610009434604F338BA6C81934026F05A6019736
:10062000EB8D0435623594A6044C34028109230114
:100630004FA704E6033384BDC7553AE60630C4C16C
:10064000C0240A3502800A2615E70320DCC43FC116
:10065000092305C6407EAC46E0E025211F98340200
:100660008D23860297EABDC763338819DFEEBDD6B6
:10067000F26F8818E6E0260CEC881326045F638886
:1006800017E7881839EE073341EF07397F09737F81
:100690000977CC110297ECD7EAC603D7EDCE060056
:1006A000DFEEBDD6F2FF097431C4A6C426288D2919
:1006B0008E094CA680A1C0260E8C095726F5F70995
:1006C00073A642B709763933A8201183070026D5CF
:1006D0005CC10B23C6394326D7B609772606F7092E
:1006E00077FF097839C6347D097326F87EAC46BD9C
:1006F000C935BDA5C7BDC79D8D928DE986FFBDC813
:1007000007BE09746F84C603D7EABDD6F2E60D8D25
:100710004430063AE68486FFA784C1C025F1CE06A0
:1007200000DFEECC110397ECD7EAC602D7ED8D259A
:100730006F013006C644BDA59A6FC011830700261D
:10074000F87ED6F23404D66F8C3404588E0926AE67
:1007500085E6003584340696EBC64A3D8E080030A7
:100760008B3586E60354D7ECC11125020CEC5850AA
:10077000EB038D05EB04D7ED393406584958495839
:1007800049E3E1396FE26CE483005A2AF9A6E4E711
:10079000E4C60A3D35025A8B092BFB4F398DB66DE5
:1007A0000026F96F0133068E06009FEECC110297EA
:1007B000ECD7EAC602D7EDBDD6F2C6447EA59A8D27
:1007C0009430064FC4FE6FE26385273163854C8108
:1007D0004424255CC50126F03406C0026362260C61
:1007E000E0E02A04E6E46361326120DCEBE0C1442E
:1007F00025F6E6E4C00420EEC6387EAC4632611F22
:10080000983AC6C0E784393402F6095B5CBDC74933
:10081000271796EBA1012611FE0974A64DA1022609
:1008200008A600A1E41026DDF35A26E13582BDA515
:10083000A50F6F5D102FEC12BDC749A6001027DB76
:10084000BA814027C17EA61686108C86200D6F2F98
:10085000B5AFE4BDC7443406A6001027DB9D814038
:100860002706A1E426DF3596AE648CB00C26F7BDD2
:10087000B26D8122260BBDB244BDB657C63BBDB298
:100880006F8EB01EAF6435962F25F1095B1022DD07
:100890008E35900D6F2F18326234160F6EBDC7441F
:1008A000E6064F8E10007EA37C0D6F2F0232623958
:1008B00032621CAF7FFF02B6FF0043847F2703BD77
:1008C000ADEB9EA69F2FA6802707813A27257EB2F3
:1008D00077A681970026037EAE15EC80DD689FA683
:1008E00096AF270F865BBDA2829668BDBDCC865DA4
:1008F000BDA2829D9F1FA9819826037E83168197A2
:1009000026037E83111F9ABDADC620A63262966F64
:100910003402BDA5AEBDA3ED0D6F102FDCBCBDC76D
:1009200044E600C1401027DCED5FA688102603E6F0
:1009300088177EA5E48EC2A96FE2B6095A97EBCE5E
:10094000094CCC2008A7C05A26FBC603BDA59ABDFA
:1009500087483384C1022512A641813A260CA6C4D9
:1009600081302506813322028D338E094C5C5A2654
:100970000C32618C094C2667C63E7EAC46A6C0810F
:100980002E272D812F2729813A27098C095427E802
:100990008D3E20DA8DDD8D055D26DD358263622793
:1009A000D7A6C1C002803025CF810322CB97EB3977
:1009B0008DC18E09578620A7828C095426F95A27A3
:1009C000DAA6C0813A27CD8C095727AC8D0220EEDC
:1009D000A78027A4812E27A0812F279C4C279939F7
:1009E000814D102705828D4B9E8ABF09579DA527F3
:1009F00021BDB26DC641BDB26F26E47309588D04A6
:100A00004F7EB764864F8C8649F6095B5CD76F7E54
:100A1000C48D8DF086FFBDCC24DC1B9319BDCC2486
:100A20001F98BDCC249E19A680BDCC249C1B26F704
:100A30007EA42D8EC2A67EC9384FC6FF2012812209
:100A40001026B85886022007814D102705734F5F86
:100A5000B70959F7095E8DDB9DA52710BDB26DC69C
:100A600052BDB26FBDA5C78603B709598D99B609A6
:100A700058270B7D095E2603BDAD197EAC7CB609F7
:100A800057BA095E1026DB8EBDAD1973095DBDCD69
:100A9000BCBDCDBC3402BDCDBC1F893502D319BD50
:100AA000AC379E19BDC5C4D6702604A78020F57F3B
:100AB000095D9F1BC603A68226035A26F99E1B9F2B
:100AC0001B6F805A2AF9BDA42DBDAD21BD829CBDEE
:100AD000ACEF7709592503BDA4267709591025E203
:100AE000BD7EAC730D6F2EDE39F6095B5C3404D726
:100AF0006F8D0E35045A26F5390D6F102FB78732DA
:100B000062BDC7440F6F9FF1A60027EC34026F004F
:100B1000E601D7EB81202619E688188680AA05ED24
:100B200088136C04E603BDC755A7013A6C067ECB5B
:100B3000C3814026F9EC09AE0B318B343631E4DE4B
:100B40001B11931D270EA64133422A028D283345DF
:100B500020EF354011931F273A1F30E3423406A699
:100B6000412AEFE64458CB054F33CB11A3E427E2EB
:100B70008D04334520F5AE42BC0948240EAC222535
:100B80000AAC2425071F10A3A4ED42396FC46F429D
:100B90006F4339F6095B5C3404BDC749A600814048
:100BA000260BEC0B10A3242504A3A4ED0B35045A4B
:100BB00026E5355611B309482706A6C0A78020F4BC
:100BC000BF0948BDC7556A006D012703BDC71E9EFA
:100BD000F1350281202708814026B0A60F270ABDE3
:100BE000C763338819DFEE8D2CA688132A9DE6880B
:100BF00012C40786203DCE0600DFEE31CBE6881218
:100C0000545454CB03D7EDCC110297EC8D09EC88EA
:100C100013847FED2EC603D7EA7ED6F20D6F102F18
:100C2000B651326234168E0926D66F58AE85E684E8
:100C3000C1102736810D26026F06812025026C0621
:100C4000C140261AEC8817C3000110A30910220125
:100C50007AED8817AE0B308B3502A71F35946C8860
:100C600018E6881827063AA7881835963460A789A9
:100C70000118E601D7EB6C04BDCBDF3184E603BD80
:100C8000C7553A3306A6248109250E6A246C25BD72
:100C9000C7BF6F246F25A7238C8AC0A7C430A4BD0B
:100CA000C685BDC5A935603596BDD24FBDC79DBDB2
:100CB000B958CC110297ECD7EAC603D7ED8E0600DF
:100CC0009FEEBDD6F23540BDA5493440A6842738F5
:100CD0004327443410C608BDB9A28D3FC603BDB931
:100CE000A28D38E600C10A24028D304FBDBDCC8DE7
:100CF0002AAEE48642AB0C8D1FE60D8D211F894F75
:100D0000BDBDCCBDB95835103088208C070025B545
:100D1000D6ED5CC11223A439BDA2827EB9ACBDC799
:100D20005533064F4C81441022F92830C43AE684EA
:100D3000C1C025F0390D6F2F5E8EB069AFE48E0211
:100D4000DDC62CD70196062602C6208D6F8120278E
:100D5000FA8122260AC12C26061F89D7012022C12A
:100D6000222711810D260D8C02DD2744A61F810A42
:100D7000263E860D4D27179101271D3404A1E0273B
:100D800017A7808C03D626068D462606201E8D408A
:100D900027CD6F848E02DC3981222704812026F240
:100DA0008D2E26EE812027F8812C27E6810D26083E
:100DB0008D1E26DE810A27DA8D1C20D68D1227157E
:100DC000BDC744E600C1401026F587C64A7EAC4642
:100DD000BDA1760D70393414BDC744E600C140266C
:100DE0000BEC8815830001ED88153594A7881163F5
:100DF00088103594BDB654C1051025E64D0F067E0A
:100E0000BC14BDB143C605BDB50FBDBC357EB69B98
:100E10008D07EC07DD527E880E966F3402BDB1431C
:100E2000BDA5AE0D6F102FE621BDC7443502976FEB
:100E30006D001027D5C5398DE0A60197EBE6023489
:100E400010BDCD1E4AC43F34041F894FBDC779EB86
:100E5000E0890035103402A6008140350226B53401
:100E600010938A27038300018DAAD64F2704CB084D
:100E7000D74FBDBC5FAEE4EC8813847F8D960F62C4
:100E8000965CD64FBDB9C5BDBC5F3510EC098D84ED
:100E90000F62965CD64FBDBB917EBCEEBDB143BD2B
:100EA000B70EC1031022D777D7EBBDC79DBDC7557D
:100EB00030066FE2C644A6804326026CE45A26F64A
:100EC00035047EB4F3BDB70BC1031022D751F70927
:100ED0005A39A6642613AE658CAF9A260CAE628C86
:100EE000B16626058ECEECAF657E8846350246BDDE
:100EF000B1481027ED3D9E52EC0210830989250769
:100F0000B3094A1025E0AA7EAFA481CA271C81C874
:100F10001026B2289D9F812C1027C734BDB70BC166
:100F2000041022E52596BC7E962EBDA4299D9F7EA9
:100F30008C1BC1341026B230BDB262966F3402BD34
:100F4000A5AEBDA4060D6F2F13BDC744E600C1407A
:100F5000260A3502976FEC88177EB4F4BDA35F357F
:100F600002976FD66C7EB4F39D9F8D4FBD836CBD91
:100F7000836CAC621025E4D2BD836CBDA5C7CC02E6
:100F800000FD0957BDCA044F8D2BEC62A364C3005A
:100F9000011F028D1EEC648D1AAE64A680BDCC24A8
:100FA000313F26F786FF8D0D4F5F8D0735368D0358
:100FB0007EA42D8D00BDCC241E89398EC2AF7EC982
:100FC000389D9F8DF6BDCA07FC0957830200102685
:100FD000D6449E8A9DA52706BDB26DBDB73D9FD361
:100FE000BDA5C7BDCDBC34028D291F028D25D3D32D
:100FF000DD9D1F01A6E01026D433BDC5C4D67027E1
:10100000037EC352A784A18027037ED709313F26E0
:10101000E920D08D00BDCDBC1E89399EA634108D2F
:101020003596EB34028D2A350291EB1026E41B8DA8
:101030002835109FA68D1FBDC68CBDC6E58D128EAE
:10104000094CFE0974C60BBDA59AC603D7EA7ED625
:10105000F2C6A5BDB26F7EC935BDC68CC6427D093C
:10106000731026DBE1391027E8EE8D030F6F39810D
:1010700023260FBDA5A5BDA4069DA51027E8D9BDB3
:10108000B26DBDB1569606261EBDBDD9BDB516BD05
:10109000B99F9DA51027E8C0862CBDA35F0D6E27C4
:1010A00002860D8D1420D88D07BDB99F8D0220E2D8
:1010B000BDA35F0D6E26B786227EA282BDC82E4FCD
:1010C0005F34169DA526023596BDB73834144FE31C
:1010D000632507AE6510A3092305C6447EAC46EE22
:1010E00063ED63EC0B33CBEF61C6FFBDB26FC6A7F8
:1010F000BDB26FBDB357BDB1463544E784EF0220A2
:10110000C2864F3402BDB357BDB1463410AE028C17
:1011100009892505BC094A2505C6467EAC46C6B3E5
:10112000BDB26FBD87483520A6A4272E3404C62043
:10113000EE22E7C04A26FBE6E0271FE1A42504E6ED
:10114000A46FE4EE226DE0270E34044F508200EBD2
:10115000A4890033CB35047EA59A3582BD95ACFCBD
:10116000094A8309893406F6095B34049DA5812C5C
:10117000270FBDB70BC10F1022E2CFE7E49DA527D3
:1011800008BDB26DBDB3E6ED61BDCAE9E6E4340465
:10119000CC0989E3622571ED62C30119256A6AE40D
:1011A0002AF75D27034C2760850127034C2759A7A1
:1011B000E4DC1B90BCABE4254F1F014C274A109385
:1011C0002124454A931BD3191F02A6E490BC1F8912
:1011D0009BBA97BADBB7D7B7354697BCF7095BFF21
:1011E000094A96684C27081F209319D3A6DDA6DE6E
:1011F0001B9F1B11931B2213A6C2A78211931926B2
:10120000F7109F196F3F20137EAC44DE19109F1911
:101210006F3FA6C0A7A0109C1B26F7CE0928BE09C9
:101220004A5FAFC16F00308901195CF1095B23F29D
:101230007E96CB8D1A5F5CBDC749270DA60191EB49
:1012400026073404BDCB063504F1095B23E839F6E3
:10125000095A9DA52709BDB70BC1031022D3C0D7DA
:10126000EB391027D3B9BD95ACBDD256F706FF9D1B
:10127000A52708C6A5BDB26FBDD25610CE06FF3455
:1012800004BDA5C7BDCAE96FE28E09886CE4308948
:1012900012009C2723F66AE41027D9A886235F341E
:1012A0000673095C5F5C6AE42704E16226F7D703F2
:1012B000E6648D4886FFBDD322E6638D426DE42748
:1012C0000C4FBDD322E661DB03E76120D78D037E9F
:1012D000AC733540B6095C27168E09284F6F914CC8
:1012E000B1095B23F89E196F1FBDAD197F095CB66C
:1012F000095D27067F095DBDAD196EC486028C8627
:1013000003DDEAA66397EC8E09899FEE9603C6017A
:10131000D7EDBDD6F20CEE5CC11223F40CEC4A26DC
:10132000ED39E665E16626367F09857FFF407F0956
:10133000863402BDA9288ED35FC60DA6E027058E90
:10134000D36CC612BDB9A28ED37EC61BBDB9A2CCCA
:101350006405978CBDA951BDA171810D26F939494C
:101360004E5345525420534F55524345494E5345D1
:1013700052542044455354494E4154494F4E204401
:1013800049534B4554544520414E440D505245530A
:10139000532027454E544552273520C60B8E0957FA
:1013A000A68234025A26F996EB34026EA4A68097E0
:1013B000EBC60BCE094C7EA59ABDC9358DDB6FE21D
:1013C0009DA5270A63E4C6A5BDB26FBDC9358DC909
:1013D000BDA5C7BDCAE96FE230E9FF006CE4308902
:1013E000FF009C1F24F66AE41027D858306E8DBD8C
:1013F000BDC68CBDC6E5BE0974EE0EAE0B3450BD45
:10140000C79DF60976BDCD1E34024AC43F34041F81
:10141000894FBDC779EBE489008E000134165FAEB9
:10142000E427095C301F2704E16A26F7AFE4E7648C
:101430008D5086FF8D406D652725306BBDD3ADBDCA
:10144000D059BDC79DBDC7553006A665C644638447
:1014500026034A270863805A26F47EC7F863848DE2
:101460001BAEE4270DEC62EB648900ED624F8D0644
:1014700020AC32E824396DE8197ED32686FF306D22
:1014800020044F30E81A97D8BDD3ADAE68BF0957D6
:101490008E0100BF097C8652F6095B5CBDC48D9E3F
:1014A000F1CC0100ED8813E6662729D6D8E467273A
:1014B00009EC62EB668900BDC2E69EF1EE64EF07BF
:1014C000E666DE1F34449EF1EF0BBDC2EA6C613567
:1014D000445A26F09EF1CE0989EF0BD6D8E467274F
:1014E000096F67EC6A8A80ED88137ECB068D388D94
:1014F0002B34108D273410C602BDD58FCE06803513
:10150000108D05CE060035103450C680BDB50F33A2
:10151000843510E784EF0235107EA59ABDB26D8E3A
:10152000B3578D2F7EB146BDB70BC103221C3404C7
:10153000BDB738C12222133404BDB738D7ED5AC124
:10154000112207350697ECD7EB397EB44ABDB26D50
:101550008EB156D6EBDEEC3444AD843544D7EBDFA8
:10156000EC398DC38DE78DBC9E5234108DDFBDB636
:101570005434145F8E06006F805A26FB3514CE0655
:10158000808D963510BDB659CE06008D8CC6038E63
:1015900006009FEED7EA7ED6F21027D082BDD25643
:1015A000C6049DA5270CBDB738C1111024DE9BBD14
:1015B000A5C734048E0712C6126F825A26FB4F202D
:1015C0000DEBE45CC01224FCCB126D8526F54CA714
:1015D00085811225EC32618E220F9C271022D66461
:1015E000BDCAE973095C10CE0800BD95AC860097B2
:1015F000EA0FECBDD6F27F098586C0B7FF48BDD79C
:10160000D1271D7ED68881162508B609868A10B78F
:10161000FF408653B7FF481E881E88BDD7D1266875
:10162000BDD7F08D6C108EFF4B1A508ED64FBF0970
:10163000838E0989B6FF4886FFB70982C6F4F7FF93
:1016400048B609868A80B7FF40E680E7A420FAB64C
:10165000FF481CAF844497F0262E0CEC96EC8123B7
:1016600026A4860297EA8E06009FEECE07004F97CB
:10167000EC5FA6C597EDBDD6F25CC11225F496ECE1
:101680004C812325EA7ED2CD7F09867FFF407ED71D
:10169000018E0989CC204E8D295F3404CE0700E6E7
:1016A000C5D7EDCED6D4C6038D1E96ECA7806F802D
:1016B00096EDA780C6098D1035045CC11225DBCCE0
:1016C000C84EE7804A26FB393404ECC18DF435045A
:1016D0005A26F539080003F501FE010101F7164EFF
:1016E0000C0003F501FB00FF01F7184E26546E9F16
:1016F000C00A3404C605F7098835048D620DF02749
:101700000D96F0C63C85402602C6287EAC463402C3
:1017100096EA81033502262A7D09872725345686D5
:101720000297EADEEE8E07009FEE8D33DFEE860332
:1017300097EA96F0260D5FA680A1C026065A26F7E6
:1017400035563935567A098826B1C64820BD5F819D
:10175000AA27075381881026DB1DF709870E9F34BF
:1017600076860534027F0985D6EB8ED89DB609862C
:1017700084A8AA858A20D6ECC11625028A101F8962
:101780008A08B70986B7FF40C5082606BDA7D1BDA0
:10179000A7D18D3D260A0FF08ED895D6EA58AD9583
:1017A0003502D6F0270B4A270834028D0B26F1208C
:1017B000B48678B7098535F68E097ED6EB6F8586B7
:1017C00003B7FF481E881E888D078D24841097F06C
:1017D000399E8A301F2708B6FF48850126F53986CD
:1017E000D0B7FF481E881E88B6FF48868097F0391C
:1017F0008E222E301F26FC3986808C86A034028EE5
:10180000097ED6EB3AE684F7FF49D1EC271E96EC29
:10181000B7FF4BA7848617B7FF481E881E888DB177
:1018200026088DCC8418270497F0358296EDB7FFF3
:101830004A8ED88BBF09839EEEB6FF48B609868ACA
:10184000803504109E8ACEFF487309821A50F7FF34
:10185000481E881E88C180271CC602E5C4260C319C
:101860003F26F87F09821CAF7ED7DFE680F7FF4B6B
:10187000B7FF4020F6C602E5C42606313F26F82011
:10188000E2F6FF4BE780B7FF4020F61CAFB6FF48FB
:10189000847C97F039D7B8D7D0D7F8D7FB010204AA
:1018A00040B609822708BE0983AF6A7F09823BB62A
:1018B000FF032AFAB6FF02B6098527114AB7098540
:1018C000260BB6098684B0B70986B7FF407E8955D6
:1018D0000000000000000000000000000000000008
:1018E00000000000000000000000000000000000F8
:1018F00000000000000000000000000000000000E8
:101900001334069DA52703BD958196B597D8350656
:10191000DDB44F3456BD9522BD928FDFD9BD99DF1E
:10192000270FBD99CB860197D7BD99BA00D7BD992E
:10193000BA10DFDC0DDB260310DEDC35560FDB10C2
:10194000DFDC30019FBDDFD197D7279F2B065CD10D
:10195000D623055F5D27DD5AD7C0BD99DF270F105D
:101960008300032504301E8D38BD99CB8D4C435325
:10197000D3D1DDD12F16BD9506BD9A122605CCFF19
:10198000FF20EDBD95148D3E8D5E20E0BD950630A7
:101990008B9FBD43538300012F041F018D037E994C
:1019A00034DDCB3520DCBD341696D740D6C03406A6
:1019B0003420C602BDAC33DCCB39DDCB3520DCC3F3
:1019C000341696D720E69EBD9FC339DDCD109EC349
:1019D0008DF4109FBD8D119ECD308BC3000139BD9C
:1019E00099C6108E95142006108E9506ADA4DE8A39
:1019F0009EBD2B179CD3221334608D16270BBD93ED
:101A00007735603341ADA420E935601F301F019365
:101A10008A39AD9F00D91F89D4D83406A484A16126
:101A200035869E8AC6013414BDB1565FBDA9A2BDDC
:101A3000A976BDB65420023514D7D827FA9FD910FD
:101A4000270F310DD827F0BD9B98813B27F58127C3
:101A500027F18158102701B28D0220E7814F260D12
:101A6000D6DE5C8D5B5AC1042263D7DE39815626EF
:101A70001AD6DF5454C01F8D47C11F225058583406
:101A800004CC7E7EABE4E0E0DDDF39814C2623D65A
:101A9000E18D2D5D2737D7E10FE58D0324FC390D4E
:101AA000D8270ABD9B98812E2705BD9BE243390CA0
:101AB000E5398154260DD6E28D065D2710D7E2392F
:101AC0007E9BAC81502624BD9CCB5D26037EB44A10
:101AD00096E59EDF3412867E97DF97E00FE58D074F
:101AE000351297E59FDF396FE22040814E2603BD16
:101AF0009B988141250481472305BD9BBE202380FF
:101B0000418E9C5BE6860DD82718BD9B98812327C4
:101B100004812B26035C200A812D26035A2003BD55
:101B20009BE25AC10B22A63404D6E196E23DDDD5F4
:101B3000336196DE8101222C8E9C62C6183D3A35B7
:101B400004583A31848D45DDE38D0C96DF8D0B8D85
:101B50000696E08D0520F2867E12B7FF20AEA430F7
:101B60001F26FC398E9C7AC60C3D3A35043A8D1CF2
:101B7000DDE38D0C96DF8D0B8D0696E08D0520F252
:101B8000867E12B7FF20A6844A26FD39C6FF96E559
:101B900027058B023D44563934100DD8274D9ED968
:101BA000A6809FD90AD8812027F035908DEA812B15
:101BB000273C812D273C813E2742813C2739813DAE
:101BC000273FBD90AA25245F803097D7860A3D4DD8
:101BD0002619DBD725150DD82717BD9B98BD90AAD0
:101BE00024E60CD89ED9301F9FD9397EB44A5C2791
:101BF000FA395D27F65A395D27F154395D2BEC58D7
:101C00003934608D16BDB70E35E0BD9C1BC602BDD4
:101C1000AC33D6D89ED934147E9A329ED93410BDB6
:101C20009B98BDB3A225C4BD9B98813B26F9351076
:101C3000DEA634409FA6BDB28435109FA6394F1F43
:101C40008BDCE310270D7493D5DDE3220D0FE30F3A
:101C5000E4350210EE67847F34023B0A0C01030571
:101C6000060801A80190017A01640150013D012B91
:101C7000011A010A00FB00ED00DF00D300C700BB22
:101C800000B100A6009D0094008B0083007C0075CD
:101C9000006EA69C938B837B746D67615B56514C81
:101CA00047433F3B3734312E2B282623211F1D1B52
:101CB0001918161413129E8AC6013414D7C29FD560
:101CC000BD959ABDB156BDB6542008BD9B987E9B6C
:101CD000BE3514D7D827FA9FD9102700EA0DD82788
:101CE000F0BD9B98813B27F5812727F1814E260483
:101CF00003D520E98142260403D620E1815810272C
:101D00000096814D1027012A3402C6010DD82711F3
:101D1000BD9B98BDB3A23401BD9BE2350124028D69
:101D2000AA3502814327288141272E8153273281FA
:101D300055275C81442755814C274C81522743808D
:101D400045272F4A27274A27324A271D7EB44ABDF6
:101D5000955DD7B2BD959A2084C10424EFD7E820C1
:101D6000F6C13F24E7D7E920EE4F8D58214F1F01E0
:101D700020594F1F018D4D1E0120504F1F018D44D2
:101D800020494F9E8A20444F8D3A20F74F20034F21
:101D90008D329E8A1E102033BD9C1BC602BDAC3303
:101DA000D6D89ED934147E9CC6D6E9271B4F1E0177
:101DB000A7E22A028D0DBD9FB51F30445644566DD3
:101DC000E02A0440508200391F103934068DDA357C
:101DD0001034068DD43510109EE834206DE42708A9
:101DE0001E108DDF6AE420F43520DE8AD3C72B0273
:101DF0001F031F109E8AD3C92B021F0111830100EC
:101E00002503CE00FF8C00C025038E00BFDCC7DD9C
:101E1000BDDCC9DDBF9FC5DFC30DD526049FC9DF6B
:101E2000C7BD94200DD62603BD94A10FD50FD67E35
:101E30009CDDBD9B983402BD9E5E3406BD9B98819F
:101E40002C1026FF07BD9E5B1F0135403502812BFC
:101E50002704812D26A61F307E9DCBBD9B98812B0C
:101E60002707812D2704BD9BE24F3402BD9CCB3553
:101E7000024D27044F5082003900000001FEC519B1
:101E800019FB1631F2F4FB4A51EC8461F9E1C77891
:101E9000AED4DC8E3BC5E5A269B506B50681402609
:101EA000029D9FBD9522BD93B2BD931DAEC49FCB35
:101EB000AE429FCDBDB26DBDB73DCE00CFAFC4BD6C
:101EC0009320860197C2BD95818E01009DA5270FA5
:101ED000BDB26DBDB141964F8B08974FBDB74096CF
:101EE000B6850227041F10308B9FD1C601D7C2D7F9
:101EF000D8BD9FE23406BD9FE2DDD9350634069E8B
:101F0000113F0F03CC26003406BEC0060C03960317
:101F100081122222A703CC0200A7848622A70235C1
:101F200006ED048B013406AD9FC0046D0627DA353B
:101F300006C6287EAC463506FC260010834F53109B
:101F40002746BF7F26007F26017EA0E8CC3B3BFDD5
:101F50000100FD0102FD0104390000000000000045
:101F6000051093D32502DCD3DDC3A6E48104250A42
:101F7000DCCD93C524114F5F200DDCCDD3C52505E5
:101F80001093D52502DCD5DDC50DD826028D503540
:101F90000604D825051093D9270C5CC10826044CEB
:101FA0005F84077E9EFD399ECFECC4270783000126
:101FB0008D031F213934766F64A6633DED66EC61B5
:101FC0003DEB668900ED65E6E4A6633DE365ED65FE
:101FD00024026C64A6E4E6623DE364ED6435F67EBB
:101FE00094A15F9DA52711BDB26DBDB141964F8BE8
:101FF00006974FBDB70EC43F1F98C40744444439E9
:00000001FF
