
07
F8
06
E0
07
FC
0E
FC
0E
E0
07
F8
06
E2
07
9E
03
02
01
00
00
00
00
00
01
27
35
78
5E
78
DE
DE
78
5E
78
34
27
01
00
30
50
88
50
30
30
5C
CF
5C
30
FF
7F
FF
FF
7F
3F
FF
7F
83
CF
FF
C1
FF
FF
C5
D5
D1
FF
C1
DD
C1
FF
F3
C1
D0
D8
FA
FE
FE
FF
FF
FF
FF
FF
FF
E0
FF
FF
E0
EE
E0
FF
FF
E0
EE
E0
FF
FF
FF
FE
FE
FA
F8
C8
80
00
80
D0
D8
FA
FE
FE
FE
FF
FF
FF
FF
FF
FF
FF
FF
FF
FF
FF
FF
FF
FF
FF
E2
EA
E8
FF
FF
E0
EE
E0
FF
FF
FF
FF
FF
FF
FF
FF
FD
E4
FF
FF
FF
FF
FF
FF
FF
FF
CC
FF
33
BF
FF
FF
EF
FF
3F
8F
FF
FF
F9
FF
E3
E7
FF
EB
DC
FF
1F
DB
FF
FF
FF
FF
FF
FB
FF
FF
FF
FF
FF
CF
FF
FF
FD
FF
E3
9F
FF
FB
03
FF
EF
00
FF
D3
00
FF
FF
00
FF
FF
00
FF
FF
00
FF
FB
00
FF
71
00
FF
FF
FF
7F
EF
1F
D9
F9
03
7F
FF
01
9B
7F
00
FE
1F
00
FF
03
00
3F
00
00
07
00
00
01
00
00
00
00
00
10
1C
22
42
22
44
22
1C
00
00
00
00
10
1C
3E
1E
3E
1C
00
00
00
00
00
00
08
1C
0C
1C
08
00
00
00
00
00
00
00
08
0C
08
00
00
00
00
00
00
00
00
00
08
00
00
00
00
00
00
00
00
00
00
00
00
00
00
08
14
24
22
12
14
08
00
00
00
00
00
08
1C
3C
1E
1C
08
00
00
00
00
00
08
1C
1C
1C
08
00
00
00
00
00
00
08
1C
1C
08
00
00
00
00
00
00
00
00
08
00
00
00
00
00
00
00
00
00
00
00
00
00
00
00
00
00
00
00
00
00
00
08
08
1C
1E
37
BF
BE
F6
F6
BE
BF
37
1E
1C
08
08
00
00
00
00
08
08
1C
7E
6C
78
EC
78
6C
7E
1C
08
08
00
00
00
00
00
00
00
0C
1E
96
BC
F4
BC
96
1E
0C
00
00
00
00
00
40
F0
40
00
00
00
04
0E
14
3A
3E
1D
3D
3E
1D
2E
0C
04
00
00
00
00
00
88
01
20
04
4E
14
BA
38
1D
39
BE
34
0C
8A
2C
01
40
12
00
00
02
07
02
00
00
00
00
00
FC
02
3F
02
00
01
07
0F
01
00
01
03
10
28
50
28
10
00
00
00
00
00
01
63
7C
13
18
00
00
18
13
7C
63
01
00
00
00
C0
32
DE
F8
DE
32
C0
00
10
09
6F
7C
6F
09
10
00
0E
2E
24
1F
07
0A
1B
00
00
00
00
00
00
80
01
F0
0F
F8
1F
DC
3E
F8
1F
F0
0F
F0
1F
E0
17
E0
27
28
C9
E8
91
04
C1
08
01
02
00
44
50
88
28
70
CF
24
1D
EF
3F
E2
01
1A
12
38
28
48
4C
88
8C
04
08
02
32
01
33
80
01
40
00
00
84
43
44
1B
24
D8
17
80
0F
8A
1F
B8
3F
F8
3F
D0
20
DE
6F
C2
6F
A2
6E
B8
12
E4
16
02
30
00
00
00
00
00
00
00
00
00
00
00
00
00
00
00
00
00
00
00
00
00
00
00
00
00
00
00
00
00
00
00
00
00
00
00
00
00
00
04
00
00
00
B4
19
01
03
00
00
00
00
A7
09
00
00
00
00
00
00
00
00
00
FE
00
00
00
FB
17
02
0C
00
00
00
00
00
00
00
00
00
FE
C8
90
97
17
02
30
00
00
00
00
00
00
00
00
00
01
13
00
00
00
08
02
00
00
25
41
00
00
C0
00
60
70
00
00
00
00
00
00
00
00
00
00
00
00
00
00
00
00
00
00
00
00
00
00
00
00
00
00
00
00
00
00
01
0B
00
00
00
00
00
47
17
FD
00
00
00
E7
19
01
01
00
00
37
17
FD
00
00
00
E8
19
01
03
00
00
27
17
FD
00
00
00
E8
19
01
03
00
00
00
00
00
00
00
00
00
00
00
00
00
00
00
FF
00
00
00
FB
19
01
08
00
00
00
00
00
00
00
00
00
00
00
00
00
00
00
00
00
00
00
00
00
00
00
00
00
00
00
21
00
00
00
00
00
00
00
00
1B
1B
13
00
08
13
0E
1B
1B
1B
00
00
00
00
11
27
07
30
00
00
00
00
00
00
00
00
00
00
00
00
01
00
00
00
00
00
00
00
05
1D
2F
00
00
1D
26
00
00
1D
39
90
39
18
03
29
90
39
18
03
31
90
39
18
03
39
A0
49
18
04
28
A0
49
18
04
30
A8
69
18
05
2F
31
48
0D
0A
09
4D
56
49
09
43
2C
30
38
48
0D
06
01
28
28
01
20
30
01
18
38
01
18
E0
01
20
E8
01
28
F0
00
05
B0
70
58
C0
40
50
80
68
60
78
40
88
90
A8
50
98
68
38
70
B0
00
05
A0
E0
38
78
50
B0
68
90
88
80
40
D8
58
48
40
98
78
C0
48
60
40
48
40
60
00
08
81
58
B0
81
80
A0
81
88
50
81
A8
40
C1
B0
C0
C1
A0
70
C1
90
B0
C1
60
40
00
00
00
00
00
00
00
04
01
70
70
01
68
C0
01
98
40
01
78
B0
00
00
00
00
80
00
00
00
00
00
00
00
00
00
03
00
00
00
00
00
00
00
13
08
0B
13
1F
24
44
24
1F
7F
49
49
49
36
3E
41
41
41
22
7F
41
41
41
3E
7F
49
49
49
41
7F
48
48
48
40
3E
41
41
45
47
7F
08
08
08
7F
00
41
7F
41
00
02
01
01
01
7E
7F
08
14
22
41
7F
01
01
01
01
7F
20
18
20
7F
7F
10
08
04
7F
3E
41
41
41
3E
7F
48
48
48
30
3E
41
45
42
3D
7F
48
4C
4A
31
32
49
49
49
26
40
40
7F
40
40
7E
01
01
01
7E
7C
02
01
02
7C
7F
02
0C
02
7F
63
14
08
14
63
60
10
0F
10
60
43
45
49
51
61
00
00
03
03
00
00
00
00
00
00
3E
45
49
51
3E
00
21
7F
01
00
23
45
49
49
31
42
41
49
59
66
0C
14
24
7F
04
72
51
51
51
4E
1E
29
49
49
46
40
47
48
50
60
36
49
49
49
36
31
49
49
4A
3C
08
14
22
41
00
00
41
22
14
08
14
14
14
14
14
22
14
7F
14
22
18
18
18
18
18
08
08
08
08
08
20
40
4D
50
20
00
00
79
00
79
00
00
00
00
C0
40
40
40
40
40
01
1C
3C
78
60
0F
14
12
07
02
11
04
03
08
13
1B
C2
FC
01
21
03
28
0E
14
C3
0C
02
21
EF
20
36
01
C9
21
10
2C
0E
0C
11
9D
09
C3
2A
05
CD
CB
05
C3
C6
1E
21
5D
20
36
00
21
27
20
36
00
23
36
00
C9
36
01
C3
6E
11
21
06
20
C3
0D
0B
36
03
C3
48
0F
21
67
20
C3
0D
0B
E1
CD
BA
14
C1
0D
C3
94
14
E1
CD
BA
14
C1
0D
C3
F1
15
E1
23
73
23
72
23
C1
0D
C3
15
15
23
22
7E
20
E1
23
5E
23
56
EB
C3
90
15
CD
13
17
E1
23
23
C1
0D
C3
AC
16
CD
13
17
E1
23
23
C1
0D
C3
D2
16
3E
05
C3
D5
05
AF
32
1B
20
C9
3E
01
C3
E7
1D
21
5E
20
36
01
C9
2E
AA
34
7E
FE
06
D4
0E
1E
21
53
20
36
00
2A
54
20
CD
0A
4F
21
11
27
C9
36
00
2E
A0
36
01
C9
2E
00
06
AA
CD
E4
02
2E
AB
34
2E
B0
36
01
C3
E1
00
00
00
00
00
00
00
00
00
00
2E
0A
E5
21
15
00
06
10
22
54
20
E1
C3
2A
0E
E5
21
10
00
C3
37
1E
06
30
E5
21
05
00
C3
37
1E
E5
7D
FE
92
D2
65
1E
FE
7E
D2
6A
1E
2E
8C
34
E1
2B
2B
36
00
C3
F8
0C
2E
8B
C3
5C
1E
2E
8A
C3
5C
1E
22
88
20
C9
22
70
20
C9
22
7C
20
C9
FE
02
21
00
02
C8
FE
03
21
00
02
C8
FE
04
21
00
02
C8
21
00
03
C9
FE
02
21
00
FE
C8
FE
03
21
00
FD
C8
FE
04
21
00
FE
C8
FE
05
21
00
FD
C8
21
00
FD
C9
01
0E
0D
14
12
1B
21
1C
1C
1B
0F
0E
08
0D
13
12
00
00
00
00
00
00
00
00
00
CD
22
17
2E
A0
7E
A7
CA
E1
00
36
00
2E
AA
36
00
E5
2E
A2
5E
23
56
EB
CD
0A
4F
E1
C3
14
1F
00
CD
EB
1D
CD
22
17
2E
8D
34
C3
26
49
CD
22
17
2E
8D
7E
FE
08
D4
FD
1E
C9
36
00
2E
70
11
13
1C
06
30
C3
04
0B
00
00
00
FE
CB
D2
CF
0E
C3
98
1F
E5
2E
AE
4E
36
00
CD
DA
03
E1
C3
15
1E
01
03
10
C3
30
0C
E5
CD
35
1F
22
36
20
E1
23
4E
23
C3
75
13
CD
22
17
2E
AB
7E
A7
21
00
01
C8
FE
01
21
00
01
C8
FE
02
21
00
02
C8
FE
03
21
00
02
C8
21
00
03
FE
04
C8
FE
05
21
00
03
C8
21
00
03
C9
FE
02
21
00
FE
C8
FE
03
21
00
FD
C8
FE
04
21
00
FE
C8
21
00
FD
C9
CD
22
17
2E
AB
7E
C6
01
27
E6
0F
C6
1C
21
02
3E
C3
36
05
00
00
00
00
00
00
00
00
00
00
00
00
00
3A
2E
20
F5
C6
1A
4F
7C
B9
D2
B0
1F
F1
C6
0B
57
7C
BA
DA
B1
1F
C3
F0
1D
F1
21
C2
20
36
01
C3
E6
1F
21
C2
20
7E
A7
C2
C7
1F
CD
CB
05
C3
92
03
36
00
2E
B0
3A
C3
20
67
CD
2C
0A
0E
06
11
E0
1F
CD
B3
05
C3
C2
4E
C3
9D
03
00
00
00
1A
1A
1A
3A
1E
20
FE
D0
D4
F4
1F
32
C3
20
C3
F0
1D
3E
C0
C9
00
00
00
00
00
00
FF
FF
C0
